<?xml version="1.0" encoding="UTF-8" standalone="no" ?>
<gpx xmlns="http://www.topografix.com/GPX/1/1" xmlns:gpxx="http://www.garmin.com/xmlschemas/GpxExtensions/v3" xmlns:gpxtpx="http://www.garmin.com/xmlschemas/TrackPointExtension/v1" creator="mapstogpx.com" version="1.1" xmlns:xsi="http://www.w3.org/2001/XMLSchema-instance" xsi:schemaLocation="http://www.topografix.com/GPX/1/1 http://www.topografix.com/GPX/1/1/gpx.xsd http://www.garmin.com/xmlschemas/GpxExtensions/v3 http://www.garmin.com/xmlschemas/GpxExtensionsv3.xsd http://www.garmin.com/xmlschemas/TrackPointExtension/v1 http://www.garmin.com/xmlschemas/TrackPointExtensionv1.xsd">
  <metadata>
    <link href="http://www.mapstogpx.com">
      <text>Sverrir Sigmundarson</text>
    </link>
    <!--desc>Map data ©2020</desc-->
    <!--copyright author="Google Inc">
    	<year>2020</year>
    	<license>https://developers.google.com/maps/terms</license>
    </copyright-->
    <!--url>https://www.google.co.uk/maps/dir/Geveko Markings Belgium, Chemin du Blanc Bleu, Ciney/Technobel, Allée des Artisans 19, 5590 Ciney/@50.3104015,5.1071607,18z/data=!3m1!4b1!4m14!4m13!1m5!1m1!1s0x47c1b9fb77c100b1:0xeb729e9c766e9ccd!2m2!1d5.11003!2d50.310903!1m5!1m1!1s0x47c1b9fa513686db:0x56a6de9283268f1d!2m2!1d5.107398!2d50.311433!3e0?hl=en</url-->
    <time>2020-08-19T14:18:38Z</time>
  </metadata>
  <wpt lat="50.310903" lon="5.11003">
    <name>Geveko Markings Belgium</name>
    <desc>Geveko Markings Belgium, Chemin du Blanc Bleu 8, 5590 Ciney, Belgium</desc>
  </wpt>
  <wpt lat="50.311433" lon="5.107398">
    <name>Technobel</name>
    <desc>Techno.bel ASBL, Allée des Artisans 19, 5590 Ciney, Belgium</desc>
  </wpt>
<trk>
  <name>Geveko Markings Belgium to Technobel</name>
  <number>1</number>
  <trkseg>
  <trkpt lat="50.3109031" lon="5.1100298">
    <name>TP001</name>
  </trkpt>
  <trkpt lat="50.3107" lon="5.10981">
    <name>TP002</name>
  </trkpt>
  <trkpt lat="50.31059" lon="5.10967">
    <name>TP003</name>
  </trkpt>
  <trkpt lat="50.31047" lon="5.10957">
    <name>TP004</name>
  </trkpt>
  <trkpt lat="50.31027" lon="5.10945">
    <name>TP005</name>
  </trkpt>
  <trkpt lat="50.31007" lon="5.10934">
    <name>TP006</name>
  </trkpt>
  <trkpt lat="50.30985" lon="5.10914">
    <name>TP007</name>
  </trkpt>
  <trkpt lat="50.30966" lon="5.10893">
    <name>TP008</name>
  </trkpt>
  <trkpt lat="50.30937" lon="5.10865">
    <name>TP009</name>
  </trkpt>
  <trkpt lat="50.30937" lon="5.10865">
    <name>TP010</name>
  </trkpt>
  <trkpt lat="50.31001" lon="5.10775">
    <name>TP011</name>
  </trkpt>
  <trkpt lat="50.31026" lon="5.10741">
    <name>TP012</name>
  </trkpt>
  <trkpt lat="50.31054" lon="5.10704">
    <name>TP013</name>
  </trkpt>
  <trkpt lat="50.31093" lon="5.10651">
    <name>TP014</name>
  </trkpt>
  <trkpt lat="50.31099" lon="5.10648">
    <name>TP015</name>
  </trkpt>
  <trkpt lat="50.3111" lon="5.10652">
    <name>TP016</name>
  </trkpt>
  <trkpt lat="50.31138" lon="5.10721">
    <name>TP017</name>
  </trkpt>
  <trkpt lat="50.31139" lon="5.10731">
    <name>TP018</name>
  </trkpt>
  <trkpt lat="50.31138" lon="5.10737">
    <name>TP019</name>
  </trkpt>
  <trkpt lat="50.3113778" lon="5.1073709">
    <name>TP020</name>
  </trkpt>
  </trkseg>
</trk>
</gpx>